DDR_/.Xil/Vivado-13272-DESKTOP-MI6UCPP/hw_ila_data_1/zip_work/waveform.vcd
$date
        2021-May-11 20:09:06
$end
$version
        Vivado v2019.1 (64-bit)
$end
$timescale
        1ps
$end
$scope module dut $end
$var reg 5 " mem_controller/pstate [4:0] $end
$var reg 1 ' p_r $end
$var reg 1 ( r_r $end
$var reg 1 ) _TRIGGER $end
$var reg 1 * _WINDOW $end
$var reg 1 + _GAP $end
$upscope $end
$enddefinitions $end
#0
$dumpvars
b10 "
0'
0(
0)
1*
0+
$end
#1
b0 "
#2
b10 "
#3
b0 "
#4
b10 "
#5
b0 "
#6
b10 "
#7
b0 "
#8
b10 "
#9
b0 "
#10
b10 "
#11
b0 "
#12
b10 "
#13
b0 "
#14
b10 "
#15
b0 "
#16
b10 "
#17
b0 "
#18
b10 "
#19
b0 "
#20
b10 "
#21
b0 "
#22
b10 "
#23
b0 "
#24
b10 "
#25
b0 "
#26
b10 "
#27
b0 "
#28
b10 "
#29
b0 "
#30
b10 "
#31
b0 "
#32
b10 "
#33
b0 "
#34
b10 "
#35
b0 "
#36
b10 "
#37
b0 "
#38
b10 "
#39
b0 "
#40
b10 "
#41
b0 "
#42
b10 "
#43
b0 "
#44
b10 "
#45
b0 "
#46
b10 "
#47
b0 "
#48
b10 "
#49
b0 "
#50
b10 "
#51
b0 "
#52
b10 "
#53
b0 "
#54
b10 "
#55
b0 "
#56
b10 "
#57
b0 "
#58
b10 "
#59
b0 "
#60
b10 "
#61
b0 "
#62
b10 "
#63
b0 "
#64
b10 "
#65
b0 "
#66
b10 "
#67
b0 "
#68
b10 "
#69
b0 "
#70
b10 "
#71
b0 "
#72
b10 "
#73
b0 "
#74
b10 "
#75
b0 "
#76
b10 "
#77
b0 "
#78
b10 "
#79
b0 "
#80
b10 "
#81
b0 "
#82
b10 "
#83
b0 "
#84
b10 "
#85
b0 "
#86
b10 "
#87
b0 "
#88
b10 "
#89
b0 "
#90
b10 "
#91
b0 "
#92
b10 "
#93
b0 "
#94
b10 "
#95
b0 "
#96
b10 "
#97
b0 "
#98
b10 "
#99
b0 "
#100
b10 "
#101
b0 "
#102
b10 "
#103
b0 "
#104
b10 "
#105
b0 "
#106
b10 "
#107
b0 "
#108
b10 "
#109
b0 "
#110
b10 "
#111
b0 "
#112
b10 "
#113
b0 "
#114
b10 "
#115
b0 "
#116
b10 "
#117
b0 "
#118
b10 "
#119
b0 "
#120
b10 "
#121
b0 "
#122
b10 "
#123
b0 "
#124
b10 "
#125
b0 "
#126
b10 "
#127
b0 "
#128
b10 "
#129
b0 "
#130
b10 "
#131
b0 "
#132
b10 "
#133
b0 "
#134
b10 "
#135
b0 "
#136
b10 "
#137
b0 "
#138
b10 "
#139
b0 "
#140
b10 "
#141
b0 "
#142
b10 "
#143
b0 "
#144
b10 "
#145
b0 "
#146
b10 "
#147
b0 "
#148
b10 "
#149
b0 "
#150
b10 "
#151
b0 "
#152
b10 "
#153
b0 "
#154
b10 "
#155
b0 "
#156
b10 "
#157
b0 "
#158
b10 "
#159
b0 "
#160
b10 "
#161
b0 "
#162
b10 "
#163
b0 "
#164
b10 "
#165
b0 "
#166
b10 "
#167
b0 "
#168
b10 "
#169
b0 "
#170
b10 "
#171
b0 "
#172
b10 "
#173
b0 "
#174
b10 "
#175
b0 "
#176
b10 "
#177
b0 "
#178
b10 "
#179
b0 "
#180
b10 "
#181
b0 "
#182
b10 "
#183
b0 "
#184
b10 "
#185
b0 "
#186
b10 "
#187
b0 "
#188
b10 "
#189
b0 "
#190
b10 "
#191
b0 "
#192
b10 "
#193
b0 "
#194
b10 "
#195
b0 "
#196
b10 "
#197
b0 "
#198
b10 "
#199
b0 "
#200
b10 "
#201
b0 "
#202
b10 "
#203
b0 "
#204
b10 "
#205
b0 "
#206
b10 "
#207
b0 "
#208
b10 "
#209
b0 "
#210
b10 "
#211
b0 "
#212
b10 "
#213
b0 "
#214
b10 "
#215
b0 "
#216
b10 "
#217
b0 "
#218
b10 "
#219
b0 "
#220
b10 "
#221
b0 "
#222
b10 "
#223
b0 "
#224
b10 "
#225
b0 "
#226
b10 "
#227
b0 "
#228
b10 "
#229
b0 "
#230
b10 "
#231
b0 "
#232
b10 "
#233
b0 "
#234
b10 "
#235
b0 "
#236
b10 "
#237
b0 "
#238
b10 "
#239
b0 "
#240
b10 "
#241
b0 "
#242
b10 "
#243
b0 "
#244
b10 "
#245
b0 "
#246
b10 "
#247
b0 "
#248
b10 "
#249
b0 "
#250
b10 "
#251
b0 "
#252
b10 "
#253
b0 "
#254
b10 "
#255
b0 "
#256
b10 "
#257
b0 "
#258
b10 "
#259
b0 "
#260
b10 "
#261
b0 "
#262
b10 "
#263
b0 "
#264
b10 "
#265
b0 "
#266
b10 "
#267
b0 "
#268
b10 "
#269
b0 "
#270
b10 "
#271
b0 "
#272
b10 "
#273
b0 "
#274
b10 "
#275
b0 "
#276
b10 "
#277
b0 "
#278
b10 "
#279
b0 "
#280
b10 "
#281
b0 "
#282
b10 "
#283
b0 "
#284
b10 "
#285
b0 "
#286
b10 "
#287
b0 "
#288
b10 "
#289
b0 "
#290
b10 "
#291
b0 "
#292
b10 "
#293
b0 "
#294
b10 "
#295
b0 "
#296
b10 "
#297
b0 "
#298
b10 "
#299
b0 "
#300
b10 "
#301
b0 "
#302
b10 "
#303
b0 "
#304
b10 "
#305
b0 "
#306
b10 "
#307
b0 "
#308
b10 "
#309
b0 "
#310
b10 "
#311
b0 "
#312
b10 "
#313
b0 "
#314
b10 "
#315
b0 "
#316
b10 "
#317
b0 "
#318
b10 "
#319
b0 "
#320
b10 "
#321
b0 "
#322
b10 "
#323
b0 "
#324
b10 "
#325
b0 "
#326
b10 "
#327
b0 "
#328
b10 "
#329
b0 "
#330
b10 "
#331
b0 "
#332
b10 "
#333
b0 "
#334
b10 "
#335
b0 "
#336
b10 "
#337
b0 "
#338
b10 "
#339
b0 "
#340
b10 "
#341
b0 "
#342
b10 "
#343
b0 "
#344
b10 "
#345
b0 "
#346
b10 "
#347
b0 "
#348
b10 "
#349
b0 "
#350
b10 "
#351
b0 "
#352
b10 "
#353
b0 "
#354
b10 "
#355
b0 "
#356
b10 "
#357
b0 "
#358
b10 "
#359
b0 "
#360
b10 "
#361
b0 "
#362
b10 "
#363
b0 "
#364
b10 "
#365
b0 "
#366
b10 "
#367
b0 "
#368
b10 "
#369
b0 "
#370
b10 "
#371
b0 "
#372
b10 "
#373
b0 "
#374
b10 "
#375
b0 "
#376
b10 "
#377
b0 "
#378
b10 "
#379
b0 "
#380
b10 "
#381
b0 "
#382
b10 "
#383
b0 "
#384
b10 "
#385
b0 "
#386
b10 "
#387
b0 "
#388
b10 "
#389
b0 "
#390
b10 "
#391
b0 "
#392
b10 "
#393
b0 "
#394
b10 "
#395
b0 "
#396
b10 "
#397
b0 "
#398
b10 "
#399
b0 "
#400
b10 "
#401
b0 "
#402
b10 "
#403
b0 "
#404
b10 "
#405
b0 "
#406
b10 "
#407
b0 "
#408
b10 "
#409
b0 "
#410
b10 "
#411
b0 "
#412
b10 "
#413
b0 "
#414
b10 "
#415
b0 "
#416
b10 "
#417
b0 "
#418
b10 "
#419
b0 "
#420
b10 "
#421
b0 "
#422
b10 "
#423
b0 "
#424
b10 "
#425
b0 "
#426
b10 "
#427
b0 "
#428
b10 "
#429
b0 "
#430
b10 "
#431
b0 "
#432
b10 "
#433
b0 "
#434
b10 "
#435
b0 "
#436
b10 "
#437
b0 "
#438
b10 "
#439
b0 "
#440
b10 "
#441
b0 "
#442
b10 "
#443
b0 "
#444
b10 "
#445
b0 "
#446
b10 "
#447
b0 "
#448
b10 "
#449
b0 "
#450
b10 "
#451
b0 "
#452
b10 "
#453
b0 "
#454
b10 "
#455
b0 "
#456
b10 "
#457
b0 "
#458
b10 "
#459
b0 "
#460
b10 "
#461
b0 "
#462
b10 "
#463
b0 "
#464
b10 "
#465
b0 "
#466
b10 "
#467
b0 "
#468
b10 "
#469
b0 "
#470
b10 "
#471
b0 "
#472
b10 "
#473
b0 "
#474
b10 "
#475
b0 "
#476
b10 "
#477
b0 "
#478
b10 "
#479
b0 "
#480
b10 "
#481
b0 "
#482
b10 "
#483
b0 "
#484
b10 "
#485
b0 "
#486
b10 "
#487
b0 "
#488
b10 "
#489
b0 "
#490
b10 "
#491
b0 "
#492
b10 "
#493
b0 "
#494
b10 "
#495
b0 "
#496
b10 "
#497
b0 "
#498
b10 "
#499
b0 "
#500
b10 "
#501
b0 "
#502
b10 "
#503
b0 "
#504
b10 "
#505
b0 "
#506
b10 "
#507
b0 "
#508
b10 "
#509
b0 "
#510
b10 "
#511
b0 "
#512
b10 "
#513
b0 "
#514
b10 "
#515
b0 "
#516
b10 "
#517
b0 "
#518
b10 "
#519
b0 "
#520
b10 "
#521
b0 "
#522
b10 "
#523
b0 "
#524
b10 "
#525
b0 "
#526
b10 "
#527
b0 "
#528
b10 "
#529
b0 "
#530
b10 "
#531
b0 "
#532
b10 "
#533
b0 "
#534
b10 "
#535
b0 "
#536
b10 "
#537
b0 "
#538
b10 "
#539
b0 "
#540
b10 "
#541
b0 "
#542
b10 "
#543
b0 "
#544
b10 "
#545
b0 "
#546
b10 "
#547
b0 "
#548
b10 "
#549
b0 "
#550
b10 "
#551
b0 "
#552
b10 "
#553
b0 "
#554
b10 "
#555
b0 "
#556
b10 "
#557
b0 "
#558
b10 "
#559
b0 "
#560
b10 "
#561
b0 "
#562
b10 "
#563
b0 "
#564
b10 "
#565
b0 "
#566
b10 "
#567
b0 "
#568
b10 "
#569
b0 "
#570
b10 "
#571
b0 "
#572
b10 "
#573
b0 "
#574
b10 "
#575
b0 "
#576
b10 "
#577
b0 "
#578
b10 "
#579
b0 "
#580
b10 "
#581
b0 "
#582
b10 "
#583
b0 "
#584
b10 "
#585
b0 "
#586
b10 "
#587
b0 "
#588
b10 "
#589
b0 "
#590
b10 "
#591
b0 "
#592
b10 "
#593
b0 "
#594
b10 "
#595
b0 "
#596
b10 "
#597
b0 "
#598
b10 "
#599
b0 "
#600
b10 "
#601
b0 "
#602
b10 "
#603
b0 "
#604
b10 "
#605
b0 "
#606
b10 "
#607
b0 "
#608
b10 "
#609
b0 "
#610
b10 "
#611
b0 "
#612
b10 "
#613
b0 "
#614
b10 "
#615
b0 "
#616
b10 "
#617
b0 "
#618
b10 "
#619
b0 "
#620
b10 "
#621
b0 "
#622
b10 "
#623
b0 "
#624
b10 "
#625
b0 "
#626
b10 "
#627
b0 "
#628
b10 "
#629
b0 "
#630
b10 "
#631
b0 "
#632
b10 "
#633
b0 "
#634
b10 "
#635
b0 "
#636
b10 "
#637
b0 "
#638
b10 "
#639
b0 "
#640
b10 "
#641
b0 "
#642
b10 "
#643
b0 "
#644
b10 "
#645
b0 "
#646
b10 "
#647
b0 "
#648
b10 "
#649
b0 "
#650
b10 "
#651
b0 "
#652
b10 "
#653
b0 "
#654
b10 "
#655
b0 "
#656
b10 "
#657
b0 "
#658
b10 "
#659
b0 "
#660
b10 "
#661
b0 "
#662
b10 "
#663
b0 "
#664
b10 "
#665
b0 "
#666
b10 "
#667
b0 "
#668
b10 "
#669
b0 "
#670
b10 "
#671
b0 "
#672
b10 "
#673
b0 "
#674
b10 "
#675
b0 "
#676
b10 "
#677
b0 "
#678
b10 "
#679
b0 "
#680
b10 "
#681
b0 "
#682
b10 "
#683
b0 "
#684
b10 "
#685
b0 "
#686
b10 "
#687
b0 "
#688
b10 "
#689
b0 "
#690
b10 "
#691
b0 "
#692
b10 "
#693
b0 "
#694
b10 "
#695
b0 "
#696
b10 "
#697
b0 "
#698
b10 "
#699
b0 "
#700
b10 "
#701
b0 "
#702
b10 "
#703
b0 "
#704
b10 "
#705
b0 "
#706
b10 "
#707
b0 "
#708
b10 "
#709
b0 "
#710
b10 "
#711
b0 "
#712
b10 "
#713
b0 "
#714
b10 "
#715
b0 "
#716
b10 "
#717
b0 "
#718
b10 "
#719
b0 "
#720
b10 "
#721
b0 "
#722
b10 "
#723
b0 "
#724
b10 "
#725
b0 "
#726
b10 "
#727
b0 "
#728
b10 "
#729
b0 "
#730
b10 "
#731
b0 "
#732
b10 "
#733
b0 "
#734
b10 "
#735
b0 "
#736
b10 "
#737
b0 "
#738
b10 "
#739
b0 "
#740
b10 "
#741
b0 "
#742
b10 "
#743
b0 "
#744
b10 "
#745
b0 "
#746
b10 "
#747
b0 "
#748
b10 "
#749
b0 "
#750
b10 "
#751
b0 "
#752
b10 "
#753
b0 "
#754
b10 "
#755
b0 "
#756
b10 "
#757
b0 "
#758
b10 "
#759
b0 "
#760
b10 "
#761
b0 "
#762
b10 "
#763
b0 "
#764
b10 "
#765
b0 "
#766
b10 "
#767
b0 "
#768
b10 "
#769
b0 "
#770
b10 "
#771
b0 "
#772
b10 "
#773
b0 "
#774
b10 "
#775
b0 "
#776
b10 "
#777
b0 "
#778
b10 "
#779
b0 "
#780
b10 "
#781
b0 "
#782
b10 "
#783
b0 "
#784
b10 "
#785
b0 "
#786
b10 "
#787
b0 "
#788
b10 "
#789
b0 "
#790
b10 "
#791
b0 "
#792
b10 "
#793
b0 "
#794
b10 "
#795
b0 "
#796
b10 "
#797
b0 "
#798
b10 "
#799
b0 "
#800
b10 "
#801
b0 "
#802
b10 "
#803
b0 "
#804
b10 "
#805
b0 "
#806
b10 "
#807
b0 "
#808
b10 "
#809
b0 "
#810
b10 "
#811
b0 "
#812
b10 "
#813
b0 "
#814
b10 "
#815
b0 "
#816
b10 "
#817
b0 "
#818
b10 "
#819
b0 "
#820
b10 "
#821
b0 "
#822
b10 "
#823
b0 "
#824
b10 "
#825
b0 "
#826
b10 "
#827
b0 "
#828
b10 "
#829
b0 "
#830
b10 "
#831
b0 "
#832
b10 "
#833
b0 "
#834
b10 "
#835
b0 "
#836
b10 "
#837
b0 "
#838
b10 "
#839
b0 "
#840
b10 "
#841
b0 "
#842
b10 "
#843
b0 "
#844
b10 "
#845
b0 "
#846
b10 "
#847
b0 "
#848
b10 "
#849
b0 "
#850
b10 "
#851
b0 "
#852
b10 "
#853
b0 "
#854
b10 "
#855
b0 "
#856
b10 "
#857
b0 "
#858
b10 "
#859
b0 "
#860
b10 "
#861
b0 "
#862
b10 "
#863
b0 "
#864
b10 "
#865
b0 "
#866
b10 "
#867
b0 "
#868
b10 "
#869
b0 "
#870
b10 "
#871
b0 "
#872
b10 "
#873
b0 "
#874
b10 "
#875
b0 "
#876
b10 "
#877
b0 "
#878
b10 "
#879
b0 "
#880
b10 "
#881
b0 "
#882
b10 "
#883
b0 "
#884
b10 "
#885
b0 "
#886
b10 "
#887
b0 "
#888
b10 "
#889
b0 "
#890
b10 "
#891
b0 "
#892
b10 "
#893
b0 "
#894
b10 "
#895
b0 "
#896
b10 "
#897
b0 "
#898
b10 "
#899
b0 "
#900
b10 "
#901
b0 "
#902
b10 "
#903
b0 "
#904
b10 "
#905
b0 "
#906
b10 "
#907
b0 "
#908
b10 "
#909
b0 "
#910
b10 "
#911
b0 "
#912
b10 "
#913
b0 "
#914
b10 "
#915
b0 "
#916
b10 "
#917
b0 "
#918
b10 "
#919
b0 "
#920
b10 "
#921
b0 "
#922
b10 "
#923
b0 "
#924
b10 "
#925
b0 "
#926
b10 "
#927
b0 "
#928
b10 "
#929
b0 "
#930
b10 "
#931
b0 "
#932
b10 "
#933
b0 "
#934
b10 "
#935
b0 "
#936
b10 "
#937
b0 "
#938
b10 "
#939
b0 "
#940
b10 "
#941
b0 "
#942
b10 "
#943
b0 "
#944
b10 "
#945
b0 "
#946
b10 "
#947
b0 "
#948
b10 "
#949
b0 "
#950
b10 "
#951
b0 "
#952
b10 "
#953
b0 "
#954
b10 "
#955
b0 "
#956
b10 "
#957
b0 "
#958
b10 "
#959
b0 "
#960
b10 "
#961
b0 "
#962
b10 "
#963
b0 "
#964
b10 "
#965
b0 "
#966
b10 "
#967
b0 "
#968
b10 "
#969
b0 "
#970
b10 "
#971
b0 "
#972
b10 "
#973
b0 "
#974
b10 "
#975
b0 "
#976
b10 "
#977
b0 "
#978
b10 "
#979
b0 "
#980
b10 "
#981
b0 "
#982
b10 "
#983
b0 "
#984
b10 "
#985
b0 "
#986
b10 "
#987
b0 "
#988
b10 "
#989
b0 "
#990
b10 "
#991
b0 "
#992
b10 "
#993
b0 "
#994
b10 "
#995
b0 "
#996
b10 "
#997
b0 "
#998
b10 "
#999
b0 "
#1000
b10 "
#1001
b0 "
#1002
b10 "
#1003
b0 "
#1004
b10 "
#1005
b0 "
#1006
b10 "
#1007
b0 "
#1008
b10 "
#1009
b0 "
#1010
b10 "
#1011
b0 "
#1012
b10 "
#1013
b0 "
#1014
b10 "
#1015
b0 "
#1016
b10 "
#1017
b0 "
#1018
b10 "
#1019
b0 "
#1020
b10 "
#1021
b0 "
#1022
b10 "
#1023
b0 "
1(
#1024
b1 "
1)
#1086
b0 "
#1087
b1 "
#1149
b0 "
#1150
b1 "
#1212
b0 "
#1213
b1 "
#1275
b0 "
#1276
b1 "
#1338
b0 "
#1339
b1 "
#1401
b0 "
#1402
b1 "
#1464
b0 "
#1465
b1 "
#1527
b0 "
#1528
b1 "
#1590
b0 "
#1591
b1 "
#1653
b0 "
#1654
b1 "
#1716
b0 "
#1717
b1 "
#1779
b0 "
#1780
b1 "
#1842
b0 "
#1843
b1 "
#1905
b0 "
#1906
b1 "
#1968
b0 "
#1969
b1 "
#2031
b0 "
#2032
b1 "
